5 term/Structural-and-Functional-Organization-of-Electronic-Сomputing-Machines-SFOECM/lab_4/LightPU.vcd
$comment
Copyright (C) 1991-2009 Altera Corporation
Your use of Altera Corporation's design tools, logic functions 
and other software and tools, and its AMPP partner logic 
functions, and any output files from any of the foregoing 
(including device programming or simulation files), and any 
associated documentation or information are expressly subject 
to the terms and conditions of the Altera Program License 
Subscription Agreement, Altera MegaCore Function License 
Agreement, or other applicable license agreement, including, 
without limitation, that your use is for the sole purpose of 
programming logic devices manufactured by Altera and sold by 
Altera or its authorized distributors.  Please refer to the 
applicable agreement for further details.
$end

$date 
  11/05/2018 12:12:45 
$end
$version 
 QUARTUS_VCD_EXPORT 1.0 
$end
$timescale
  1 ps
$end
$scope module LightPU $end
$var reg 9 ! address[8:0] $end
$var reg 1 " clk $end
$var reg 8 # cmp_part_1[7:0] $end
$var reg 8 $ cmp_part_2[7:0] $end
$var reg 8 % control[7:0] $end
$var reg 8 & data[7:0] $end
$var reg 8 ' reg0[7:0] $end
$var reg 8 ( reg1[7:0] $end
$var reg 8 ) reg2[7:0] $end
$var reg 8 * reg3[7:0] $end
$var reg 8 + reg4[7:0] $end
$var reg 8 , reg5[7:0] $end
$var reg 8 - reg6[7:0] $end
$var reg 8 . reg7[7:0] $end
$var reg 1 / cmd_reading_complete $end
$upscope $end
$enddefinitions $end
#0
$dumpvars
b0 !
0"
b0 #
b0 $
b1 %
b0 &
b0 '
b0 (
b0 )
b0 *
b0 +
b0 ,
b0 -
b0 .
0/
$end
#5000
b1 !
1"
#10000
0"
b1011000 #
b1011000 &
#15000
b10 !
1"
b1011000 $
#20000
0"
b1010000 $
b1010000 &
#25000
b11 !
1"
b10 %
b1010 &
1/
#30000
0"
#35000
b10 !
1"
b1 %
b1 &
b1010 *
0/
#40000
0"
b1000000 &
#45000
b11 !
1"
b1000000 #
#50000
0"
b1 #
b1 &
#55000
b100 !
1"
b1 $
#60000
0"
b1000000 $
b1000000 &
#65000
b0 !
1"
b0 %
b0 &
1/
#70000
0"
#75000
b11000 !
1"
b1 %
0/
#80000
0"
b1011000 &
#85000
b11001 !
1"
b1011000 #
#90000
0"
b10011000 #
b10011000 &
#95000
b11010 !
1"
b10011000 $
#100000
0"
b1101000 $
b1101000 &
#105000
b11 !
1"
b1100 %
b0 &
1/
#110000
0"
b1010 &
#115000
b0 !
1"
b10000 %
b1101 &
#120000
0"
#125000
1"
b1000000 %
b0 &
#130000
0"
#135000
b11 !
1"
b10000010 %
b11111101 &
#140000
0"
#145000
b0 !
1"
b0 %
b0 &
b11111101 *
#150000
0"
#155000
b11010 !
1"
b1 %
b1000000 &
0/
#160000
0"
b1011000 &
#165000
b11011 !
1"
b1011000 #
#170000
0"
b1010000 #
b1010000 &
#175000
b11100 !
1"
b1010000 $
#180000
0"
b10011000 $
b10011000 &
#185000
b10 !
1"
b10 %
b10011 &
1/
#190000
0"
#195000
b11100 !
1"
b1 %
b11010000 &
b10011 )
0/
#200000
0"
b1 &
#205000
b11101 !
1"
b1 #
#210000
0"
b11010000 #
b11010000 &
#215000
b11110 !
1"
b11010000 $
#220000
0"
b10100000 $
b10100000 &
#225000
b10 !
1"
b1100 %
b0 &
1/
#230000
0"
b10011 &
#235000
b0 !
1"
b10000 %
b10100 &
#240000
0"
#245000
1"
b1100000 %
b0 &
#250000
0"
#255000
b10 !
1"
b10000010 %
b11111111 &
#260000
0"
#265000
b0 !
1"
b0 %
b0 &
b11111111 )
#270000
0"
#275000
b11110 !
1"
b1 %
b1 &
0/
#280000
0"
b1011000 &
#285000
b11111 !
1"
b1011000 #
#290000
0"
b0 #
b0 &
#295000
b100000 !
1"
b0 $
#300000
0"
#305000
b0 !
1"
b0 %
1/
#310000
0"
#315000
b100000 !
1"
b1 %
0/
#320000
0"
b1011000 &
#325000
b100001 !
1"
b1011000 #
#330000
0"
b0 #
b0 &
#335000
b100010 !
1"
#340000
0"
#345000
b0 !
1"
b0 %
1/
#350000
0"
#355000
b100010 !
1"
b1 %
0/
#360000
0"
b1011000 &
#365000
b100011 !
1"
b1011000 #
#370000
0"
b0 #
b0 &
#375000
b100100 !
1"
#380000
0"
#385000
b0 !
1"
b0 %
1/
#390000
0"
#395000
b100100 !
1"
b1 %
0/
#400000
0"
b1011000 &
#405000
b100101 !
1"
b1011000 #
#410000
0"
b0 #
b0 &
#415000
b100110 !
1"
#420000
0"
#425000
b0 !
1"
b0 %
1/
#430000
0"
#435000
b100110 !
1"
b1 %
0/
#440000
0"
b1011000 &
#445000
b100111 !
1"
b1011000 #
#450000
0"
b0 #
b0 &
#455000
b101000 !
1"
#460000
0"
#465000
b0 !
1"
b0 %
1/
#470000
0"
#475000
b101000 !
1"
b1 %
0/
#480000
0"
b1011000 &
#485000
b101001 !
1"
b1011000 #
#490000
0"
b0 #
b0 &
#495000
b101010 !
1"
#500000
0"
#505000
b0 !
1"
b0 %
1/
#510000
0"
#515000
b101010 !
1"
b1 %
0/
#520000
0"
b1011000 &
#525000
b101011 !
1"
b1011000 #
#530000
0"
b0 #
b0 &
#535000
b101100 !
1"
#540000
0"
#545000
b0 !
1"
b0 %
1/
#550000
0"
#555000
b101100 !
1"
b1 %
0/
#560000
0"
b1011000 &
#565000
b101101 !
1"
b1011000 #
#570000
0"
b0 #
b0 &
#575000
b101110 !
1"
#580000
0"
#585000
b0 !
1"
b0 %
1/
#590000
0"
#595000
b101110 !
1"
b1 %
0/
#600000
0"
b1011000 &
#605000
b101111 !
1"
b1011000 #
#610000
0"
b0 #
b0 &
#615000
b110000 !
1"
#620000
0"
#625000
b0 !
1"
b0 %
1/
#630000
0"
#635000
b110000 !
1"
b1 %
0/
#640000
0"
b1011000 &
#645000
b110001 !
1"
b1011000 #
#650000
0"
b0 #
b0 &
#655000
b110010 !
1"
#660000
0"
#665000
b0 !
1"
b0 %
1/
#670000
0"
#675000
b110010 !
1"
b1 %
0/
#680000
0"
b1011000 &
#685000
b110011 !
1"
b1011000 #
#690000
0"
b0 #
b0 &
#695000
b110100 !
1"
#700000
0"
#705000
b0 !
1"
b0 %
1/
#710000
0"
#715000
b110100 !
1"
b1 %
0/
#720000
0"
b1011000 &
#725000
b110101 !
1"
b1011000 #
#730000
0"
b0 #
b0 &
#735000
b110110 !
1"
#740000
0"
#745000
b0 !
1"
b0 %
1/
#750000
0"
#755000
b110110 !
1"
b1 %
0/
#760000
0"
b1011000 &
#765000
b110111 !
1"
b1011000 #
#770000
0"
b0 #
b0 &
#775000
b111000 !
1"
#780000
0"
#785000
b0 !
1"
b0 %
1/
#790000
0"
#795000
b111000 !
1"
b1 %
0/
#800000
0"
b1011000 &
#805000
b111001 !
1"
b1011000 #
#810000
0"
b0 #
b0 &
#815000
b111010 !
1"
#820000
0"
#825000
b0 !
1"
b0 %
1/
#830000
0"
#835000
b111010 !
1"
b1 %
0/
#840000
0"
b1011000 &
#845000
b111011 !
1"
b1011000 #
#850000
0"
b0 #
b0 &
#855000
b111100 !
1"
#860000
0"
#865000
b0 !
1"
b0 %
1/
#870000
0"
#875000
b111100 !
1"
b1 %
0/
#880000
0"
b1011000 &
#885000
b111101 !
1"
b1011000 #
#890000
0"
b0 #
b0 &
#895000
b111110 !
1"
#900000
0"
#905000
b0 !
1"
b0 %
1/
#910000
0"
#915000
b111110 !
1"
b1 %
0/
#920000
0"
b1011000 &
#925000
b111111 !
1"
b1011000 #
#930000
0"
b0 #
b0 &
#935000
b1000000 !
1"
#940000
0"
#945000
b0 !
1"
b0 %
1/
#950000
0"
#955000
b1000000 !
1"
b1 %
0/
#960000
0"
b1011000 &
#965000
b1000001 !
1"
b1011000 #
#970000
0"
b0 #
b0 &
#975000
b1000010 !
1"
#980000
0"
#985000
b0 !
1"
b0 %
1/
#990000
0"
#995000
b1000010 !
1"
b1 %
0/
